route,service-address
/,172.16.139.68
/guia-estilos,172.16.139.68/guia-estilos
/busca,rewrite ^ https://datos.gob.mx/busca/dataset permanent;
/busca/,172.16.53.179/busca/
/datastore/,172.16.226.211:8800/
/ckan-admin/,172.16.146.181/ckan-admin/
/adela/,172.16.122.52/adela/
/informa/,172.16.58.23/informa/
/reportar/,172.16.58.23/reportar/
/mb/,172.16.238.246
/send/,172.16.209.210/send/
/converter/,172.16.46.181/converter/
/encuestas/,172.16.169.178/encuestas/
/tablero-instituciones/,172.16.94.23/tablero-instituciones
/guia/,172.16.168.172
/complejidad/,172.16.158.232
/agenda2030,http://agenda2030.mx/
/contrataciones,contrataciones.datos.gob.mx
/redcompartida/,172.16.124.13:4000
/contratacionesabiertas/,172.16.124.13:4000/contratacionesabiertas/
/puertosabiertos/,172.16.124.13:4000/puertosabiertos/
/nuevoaeropuerto/,172.16.124.13:4000/contratacionesabiertas/contratos/
/idmx/,172.16.136.32/idmx/
/alerta-amber/,172.16.96.229
/visualizacion,172.16.34.91
/visualizaciones,172.16.34.91
/api/buda/,172.16.160.247/api/
/api/shcp/contrataciones/,172.16.39.167/api
/cambioclimatico,cambioclimatico.datos.gob.mx
/soluciones-abiertas/,172.16.220.223/soluciones-abiertas
/motor-redireccion-legacy/,172.16.87.34
/retos/,172.16.214.188/retos/
/complejidad-api/,cide.cid-labs.com/api/
/mapa/,172.16.128.1
/atlas/,172.16.158.232/
